Data cleaning and EDA
…
Data Random sampling each 500 from both diabetes and nondiabetes
population. Join them together.

set.seed(123)

diabetes= 
  diabetes_raw |>
  filter(Diabetes_012 == 'Diabetes')
diabetes_sample =
  sample_n(diabetes, size = 500, replace = FALSE)

diabetes_sample

## # A tibble: 500 × 23
##    Diabetes_012 HighBP HighChol CholCheck   BMI Smoker Stroke
##    <fct>        <fct>     <dbl>     <dbl> <dbl>  <dbl>  <dbl>
##  1 Diabetes     Yes           1         1    32      1      0
##  2 Diabetes     Yes           1         1    30      0      0
##  3 Diabetes     Yes           1         1    33      1      0
##  4 Diabetes     Yes           1         1    38      1      0
##  5 Diabetes     Yes           1         1    21      0      0
##  6 Diabetes     Yes           0         1    32      1      0
##  7 Diabetes     Yes           1         1    34      1      0
##  8 Diabetes     Yes           0         1    30      1      0
##  9 Diabetes     Yes           1         1    21      1      0
## 10 Diabetes     Yes           1         1    27      0      0
## # ℹ 490 more rows
## # ℹ 16 more variables: HeartDiseaseorAttack <dbl>, PhysActivity <dbl>,
## #   Fruits <dbl>, Veggies <dbl>, HvyAlcoholConsump <dbl>, AnyHealthcare <dbl>,
## #   NoDocbcCost <dbl>, GenHlth <dbl>, MentHlth <dbl>, PhysHlth <dbl>,
## #   DiffWalk <dbl>, Sex <dbl>, Age <dbl>, Education <dbl>, Income <dbl>,
## #   weight_status <chr>

nondiabetes= 
  diabetes_raw |>
  filter(Diabetes_012 == 'No Diabetes')
nondiabetes_sample =
  sample_n(nondiabetes, size = 500, replace = FALSE)

nondiabetes_sample

## # A tibble: 500 × 23
##    Diabetes_012 HighBP HighChol CholCheck   BMI Smoker Stroke
##    <fct>        <fct>     <dbl>     <dbl> <dbl>  <dbl>  <dbl>
##  1 No Diabetes  No            0         1    30      1      0
##  2 No Diabetes  Yes           1         1    28      1      0
##  3 No Diabetes  No            1         1    26      1      0
##  4 No Diabetes  No            0         1    24      1      0
##  5 No Diabetes  No            0         1    26      0      0
##  6 No Diabetes  Yes           0         1    26      0      0
##  7 No Diabetes  No            1         1    20      0      0
##  8 No Diabetes  Yes           1         1    34      0      0
##  9 No Diabetes  No            0         1    23      1      0
## 10 No Diabetes  No            0         1    24      1      0
## # ℹ 490 more rows
## # ℹ 16 more variables: HeartDiseaseorAttack <dbl>, PhysActivity <dbl>,
## #   Fruits <dbl>, Veggies <dbl>, HvyAlcoholConsump <dbl>, AnyHealthcare <dbl>,
## #   NoDocbcCost <dbl>, GenHlth <dbl>, MentHlth <dbl>, PhysHlth <dbl>,
## #   DiffWalk <dbl>, Sex <dbl>, Age <dbl>, Education <dbl>, Income <dbl>,
## #   weight_status <chr>

sample_df = full_join(diabetes_sample, nondiabetes_sample)

## Joining with `by = join_by(Diabetes_012, HighBP, HighChol, CholCheck, BMI,
## Smoker, Stroke, HeartDiseaseorAttack, PhysActivity, Fruits, Veggies,
## HvyAlcoholConsump, AnyHealthcare, NoDocbcCost, GenHlth, MentHlth, PhysHlth,
## DiffWalk, Sex, Age, Education, Income, weight_status)`

sample_df

## # A tibble: 1,000 × 23
##    Diabetes_012 HighBP HighChol CholCheck   BMI Smoker Stroke
##    <fct>        <fct>     <dbl>     <dbl> <dbl>  <dbl>  <dbl>
##  1 Diabetes     Yes           1         1    32      1      0
##  2 Diabetes     Yes           1         1    30      0      0
##  3 Diabetes     Yes           1         1    33      1      0
##  4 Diabetes     Yes           1         1    38      1      0
##  5 Diabetes     Yes           1         1    21      0      0
##  6 Diabetes     Yes           0         1    32      1      0
##  7 Diabetes     Yes           1         1    34      1      0
##  8 Diabetes     Yes           0         1    30      1      0
##  9 Diabetes     Yes           1         1    21      1      0
## 10 Diabetes     Yes           1         1    27      0      0
## # ℹ 990 more rows
## # ℹ 16 more variables: HeartDiseaseorAttack <dbl>, PhysActivity <dbl>,
## #   Fruits <dbl>, Veggies <dbl>, HvyAlcoholConsump <dbl>, AnyHealthcare <dbl>,
## #   NoDocbcCost <dbl>, GenHlth <dbl>, MentHlth <dbl>, PhysHlth <dbl>,
## #   DiffWalk <dbl>, Sex <dbl>, Age <dbl>, Education <dbl>, Income <dbl>,
## #   weight_status <chr>
…
